<svg width="32" height="32" viewBox="0 0 32 32" fill="none" xmlns="http://www.w3.org/2000/svg">
<path d="M23.6507 7.96912H24.6177C26.7811 7.96912 28.5413 9.98049 28.5413 12.4529V19.7326C28.5413 22.2051 26.7811 24.2165 24.6177 24.2165H23.6497V25.3401M23.6507 9.83091H24.6177C25.8828 9.83091 26.9122 11.0071 26.9122 12.4529V19.7326C26.9122 21.1784 25.8828 22.3547 24.6177 22.3547H23.6502L23.6507 9.83091Z" stroke="black" stroke-width="0.7"/>
<path d="M22.8368 7.96914H23.6386C23.4923 5.88625 21.9635 4.24239 20.1041 4.24239H16.2707V2.37793H17.9017V1H13.0106V2.37793H14.6416V4.24239H10.8082C8.94878 4.24239 7.42004 5.88625 7.27368 7.96914H22.8368Z" stroke="black" stroke-width="0.7"/>
<path d="M7.26005 16.0936V7.96912H4V11.8748L7.26005 16.0936ZM7.26005 16.0936L7.26069 17.9554V20.4914V22.3532V25.3401M15.2794 7.96912V22.8577M15.2794 22.8577H9.32164M15.2794 22.8577H21.2371" stroke="black" stroke-width="0.7"/>
<path d="M7.26013 25.3401H23.6506V31H15.4553H7.26013V25.3401Z" stroke="black" stroke-width="0.7"/>
</svg>
