<svg width="41" height="40" viewBox="0 0 41 40" fill="none" xmlns="http://www.w3.org/2000/svg">
<path fill-rule="evenodd" clip-rule="evenodd" d="M0.929688 20C0.929688 8.95431 9.88399 0 20.9297 0C31.9754 0 40.9297 8.95431 40.9297 20C40.9297 31.0457 31.9754 40 20.9297 40C9.88399 40 0.929688 31.0457 0.929688 20ZM15.1214 21.6406C14.1884 21.6406 13.4287 20.8809 13.4287 19.9479V14.5312C13.4287 13.5982 14.1884 12.8386 15.1214 12.8386H17.1527C17.5339 12.8386 17.8846 12.9672 18.1683 13.1812V21.6406H15.1214ZM29.2387 20.1674C29.5184 19.8878 29.6795 19.5086 29.6795 19.1017C29.6795 18.5146 29.3437 17.9994 28.8433 17.7475C28.9476 17.5396 29.0024 17.3101 29.0024 17.0704C29.0024 16.4827 28.6659 15.9675 28.1656 15.7156C28.3206 15.4068 28.366 15.0514 28.2881 14.6986C28.1365 14.0127 27.4912 13.5157 26.7538 13.5157H20.5389C20.0947 13.5157 19.3973 13.6559 18.8462 13.9159V21.1729L18.9274 21.2142L20.8774 25.4385V27.7345C20.8774 27.8374 20.9242 27.9349 21.004 27.9992C21.0045 27.9996 21.0053 28.0001 21.0062 28.0009C21.0483 28.033 21.5439 28.4116 22.2316 28.4116C23.015 28.4116 24.2628 27.1718 24.2628 25.7032C24.2628 24.777 23.9311 23.6239 23.7239 22.9949H27.9062C28.8176 22.9949 29.5928 22.3205 29.6721 21.46C29.7161 20.9772 29.5549 20.5134 29.2387 20.1674Z" fill="black"/>
</svg>
